<?xml version="1.0" encoding="utf-8"?>
<!-- Generator: Adobe Illustrator 16.0.0, SVG Export Plug-In . SVG Version: 6.00 Build 0)  -->
<!DOCTYPE svg PUBLIC "-//W3C//DTD SVG 1.1//EN" "http://www.w3.org/Graphics/SVG/1.1/DTD/svg11.dtd">
<svg version="1.1" id="Слой_1" xmlns="http://www.w3.org/2000/svg" xmlns:xlink="http://www.w3.org/1999/xlink" x="0px" y="0px"
	 width="30px" height="30px" viewBox="0 0 30 30" enable-background="new 0 0 30 30" xml:space="preserve">
<g>
	
		<rect x="1.5" y="1.5" fill="none" stroke="#252528" stroke-linecap="round" stroke-linejoin="round" stroke-miterlimit="10" width="12" height="12"/>
	
		<rect x="16.5" y="1.5" fill="none" stroke="#252528" stroke-linecap="round" stroke-linejoin="round" stroke-miterlimit="10" width="12" height="12"/>
	
		<line fill="none" stroke="#252528" stroke-linecap="round" stroke-linejoin="round" stroke-miterlimit="10" x1="19" y1="7.5" x2="26" y2="7.5"/>
	
		<rect x="1.5" y="16.5" fill="none" stroke="#252528" stroke-linecap="round" stroke-linejoin="round" stroke-miterlimit="10" width="12" height="12"/>
	
		<rect x="16.5" y="16.5" fill="none" stroke="#252528" stroke-linecap="round" stroke-linejoin="round" stroke-miterlimit="10" width="12" height="12"/>
	
		<line fill="none" stroke="#252528" stroke-linecap="round" stroke-linejoin="round" stroke-miterlimit="10" x1="4" y1="7.5" x2="11" y2="7.5"/>
	
		<line fill="none" stroke="#252528" stroke-linecap="round" stroke-linejoin="round" stroke-miterlimit="10" x1="7.5" y1="11" x2="7.5" y2="4"/>
	
		<line fill="none" stroke="#252528" stroke-linecap="round" stroke-linejoin="round" stroke-miterlimit="10" x1="5" y1="25" x2="10" y2="20"/>
	
		<line fill="none" stroke="#252528" stroke-linecap="round" stroke-linejoin="round" stroke-miterlimit="10" x1="10" y1="25" x2="5" y2="20"/>
	<path d="M25.202,23.796c0.395,0.393,0.396,1.024,0.01,1.414c-0.392,0.389-1.024,0.387-1.417-0.007
		c-0.391-0.393-0.394-1.024-0.005-1.413C24.18,23.4,24.812,23.403,25.202,23.796"/>
	<path d="M21.204,19.796c-0.393-0.393-1.024-0.395-1.413-0.007c-0.389,0.391-0.389,1.023,0.006,1.416
		c0.392,0.393,1.024,0.393,1.414,0.005C21.6,20.82,21.596,20.188,21.204,19.796"/>
	
		<line fill="none" stroke="#252528" stroke-linecap="round" stroke-linejoin="round" stroke-miterlimit="10" x1="20.5" y1="24.5" x2="24.5" y2="20.5"/>
</g>
</svg>
